column;new_name;importance
OBJECTID;objectid;
County FIPS;county_FIPS;Forte
State;state;Forte
Name;name;Forte
County Ranked (Yes=1, No=0);county_rank; 
Premature death;premature_death;faible
Number of years of potential life lost for deaths under 75 over 3 years;8;faible
Aggregate population under age 75 over 3 years reporting for premature death;9;faible
Premature death flag (0 = No Flag, 1=Unreliable, 2=Suppressed);10;faible
Premature death (American Indian/Alaska Native);11;faible
Premature death flag (American Indian/Alaska Native) (. = No Flag, 1=Unreliable, 2=Suppressed);12;faible
Premature death (Asian/Pacific Islander);13;faible
Premature death flag (Asian/Pacific Islander) (. = No Flag, 1=Unreliable, 2=Suppressed);14;faible
Premature death (Black);15;faible
Premature death flag (Black) (. = No Flag, 1=Unreliable, 2=Suppressed);16;faible
Premature death (Hispanic);17;faible
Premature death flag (Hispanic) (. = No Flag, 1=Unreliable, 2=Suppressed);18;faible
Premature death (White);19;faible
Premature death flag (White) (. = No Flag, 1=Unreliable, 2=Suppressed);20;faible
% Poor or fair health;p_poor_or_fair_health;Forte
Respondents reporting poor or fair health;22;M
Total number of adult respondents reporting for health;23;faible
Poor physical health days;24;faible
Average number of poor mental health days;25;faible
Number of mentally unhealthy days;26;faible
Total number of respondents reporting for mental health;27;faible
% Low birthweight;28;faible
Number of low birthweight live births;29;faible
Total number of live births (for low birthweight);30;faible
Low birthweight unreliable indicator (Unreliable = Numerator < 20 or relative standard error > 20%);31;faible
% Low birthweight (American Indian/Alaska Native);32;faible
% Low birthweight (Asian/Pacific Islander);33;faible
% Low birthweight (Black);34;faible
% Low birthweight (Hispanic);35;faible
% Low birthweight (White);36;faible
% Adult smoking;37;faible
Adult respondents reporting as current smokers;38;faible
Total number of adult respondents reporting for smoking;39;faible
% Adult obesity;p_adult_obesity;Forte
Number of respondents age 18 and older reporting a BMI 30+;bmi_30;M
Total number of respondents age 18 and older reporting for obesity;18_and_older_obesity;M
Food environment index;food_env_index;Forte
% of adults age 18 and over reporting no leisure-time physical activity;44;faible
Adults age 18 and over reporting no leisure-time physical activity;45;faible
Adults age 18 and over;46;faible
% of population with adequate access to locations for physical activity;p_access_sport;Forte
Total 2010 household population living in census blocks with adequate access to at least one location for physical activity;48;faible
Resident county population;49;faible
% Excessive drinking;p_excessive_drinking;Forte
Number of adults reporting excessive drinking;excessive_drinking;M
Total number of adult respondents reporting for excessive drinking;52;faible
% of driving deaths with alcohol involvement;53;faible
Total number of motor vehicle crash deaths;54;faible
Total number of alcohol-impaired motor vehicle crash deaths;55;faible
Sexually transmitted infections per 100,000;56;faible
Number of sexually transmitted infections;57;faible
Total population reporting for sexually transmitted infections;58;faible
Teen births per 1,000;59;faible
Females age 15-19 who had a birth;60;faible
Total females age 15-19;61;faible
Teen births per 1,000 (American Indian/Alaska Native);62;faible
Teen births per 1,000 (Asian/Pacific Islander);63;faible
Teen births per 1,000 (Black);64;faible
Teen births per 1,000 (Hispanic);65;faible
Teen births per 1,000 (White);66;faible
% of population under age 65 without health insurance;67;M
Number of people currently uninsured in the county under the age of 65;68;M
Number of people in the county under age 65;69;faible
Primary care physicians per 100,000;70;faible
Number of primary care physicians;71;faible
Total population reporting for primary care physicians;72;faible
Ratio of population to primary care physicians;73;faible
Dentists per 100,000;74;faible
Number of dentists;75;faible
Total population from Area Health Resource File/National Provider Identification file;76;faible
Ratio of population to dentists.;77;faible
Mental health providers per 100,000;78;faible
Number of mental health providers;79;faible
Total population reporting for mental health providers;80;faible
Ratio of population to mental health providers.;81;faible
Preventable hospital stays;82;faible
Number of discharges of preventable hospital stays for Medicare beneficiaries;83;faible
Total Medicare beneficiaries;84;faible
Preventable hospital stays (American Indian/Alaska Native);85;faible
Preventable hospital stays (Asian/Pacific Islander);86;faible
Preventable hospital stays (Black);87;faible
Preventable hospital stays (Hispanic);88;faible
Preventable hospital stays (White);89;faible
% Mammography screening;90;faible
Number of women who had a mammogram;91;faible
Total female Medicare beneficiaries;92;faible
% Mammography screening (American Indian/Alaska Native);93;faible
% Mammography screening (Asian/Pacific Islander);94;faible
% Mammography screening (Black);95;faible
% Mammography screening (Hispanic);96;faible
% Mammography screening (White);97;faible
% Flu vaccinations;98;faible
Number of Medicare beneficiaries enrolled in fee-for-service Medicare Part B for at least one month of the selected year and who have received a covered influenza vaccine in the last year;99;faible
Medicare beneficiaries enrolled in fee-for-service Medicare Part B for at least one month of the selected year;100;faible
% Flu vaccinations (American Indian/Alaska Native);101;faible
% Flu vaccinations (Asian/Pacific Islander);102;faible
% Flu vaccinations (Black);103;faible
% Flu vaccinations (Hispanic);104;faible
% Flu vaccinations (White);105;faible
% High school completion;106;faible
Number of people with at least a high school diploma;107;faible
Total population reporting for high school completion;108;faible
% of adults ages 25-44 with some post-secondary education;109;faible
Adults ages 25-44 with some post-secondary education;110;faible
Adults ages 25-44;111;faible
% Unemployment;p_unemployment;forte
Number of unemployed people seeking work;113;faible
Total number of people in civilian labor force age 16+;114;faible
% Children in poverty;p_children_poverty;forte
Number of children in household below poverty level;116;M
Total number of children reporting for poverty level;children_poverty;M
% Children in poverty (American Indian/Alaska Native);118;M
% Children in poverty (Asian/Pacific Islander);119;M
% Children in poverty (Black);120;M
% Children in poverty (Hispanic);121;M
% Children in poverty (White);122;M
Income inequality ratio of income at 80th percentile to 20th percentile;inequality_80th_20th;forte
80th percentile of median household income;80th_income;forte
20th percentile of median household income;20th_income;forte
% of children that live in a household headed by single parent;126;faible
Number of children in family households where the household is headed by a single parent;127;faible
Number of children living in family households;128;faible
Number of membership associations per 10,000 population;129;faible
Total number of membership associations in a county;130;faible
Total resident population of a county;131;M
Violent crime offenses per 100,000;132;faible
Number of violent crimes;133;M
Total county population which reported crimes;134;faible
Number of deaths due to injury per 100,000 population;135;faible
Number of injury deaths with an underlying cause of injury;136;faible
Aggregate annual population;137;faible
Number of American Indian/Alaska Native deaths due to injury per 100,000 population;138;faible
Number of Asian/Pacific Islander deaths due to injury per 100,000 population;139;faible
Number of Black deaths due to injury per 100,000 population;140;faible
Number of Hispanic deaths due to injury per 100,000 population;141;faible
Number of white deaths due to injury per 100,000 population;142;faible
Average daily density of fine particulate matter in micrograms per cubic meter (PM2.5);143;faible
Drinking water violations;144;faible
% of households with severe housing problems;145;M
Number of households in a county with at least one of the above housing problems.;146;M
Total number of households in a county;147;faible
% of households with high housing costs;148;faible
% of households with overcrowding;149;faible
% of households with lack of kitchen or plumbing facilities;150;faible
% Driving alone to work;151;faible
Number of workers driving alone to work;152;faible
Total workforce reporting for driving to work ;153;faible
% Driving alone to work (American Indian/Alaska Native);154;faible
% Driving alone to work (Asian/Pacific Islander);155;faible
% Driving alone to work (Black);156;faible
% Driving alone to work (Hispanic);157;faible
% Driving alone to work (White);158;faible
% that commute more than 30 minutes;159;
Number of workers who drive alone (via car, truck, or van) for more than 30 minutes during their commute;160;faible
Number of workers who drive alone (via car, truck, or van) during their commute;161;faible
COVID-19 age-adjusted mortality per 100,000;162;faible
COVID-19 deaths;163;faible
COVID-19 age-adjusted mortality denominator;164;faible
Life expectancy;165;faible
Life expectancy (American Indian/Alaska Native);166;faible
Life expectancy (Asian/Pacific Islander);167;faible
Life expectancy (Black);168;faible
Life expectancy (Hispanic);169;faible
Life expectancy (White);170;faible
Premature age-adjusted mortality;171;faible
Number of total deaths under the age of 75;172;faible
Total population under the age of 75;173;faible
Premature age-adjusted mortality (American Indian/Alaska Native);174;faible
Premature age-adjusted mortality (Asian/Pacific Islander);175;faible
Premature age-adjusted mortality (Black);176;faible
Premature age-adjusted mortality (Hispanic);177;faible
Premature age-adjusted mortality (White);178;faible
Child mortality per 100,000;179;faible
Number of total deaths for children under the age of 18;180;faible
Total population under the age of 18;181;faible
Child mortality per 100,000 (American Indian/Alaska Native);182;faible
Child mortality per 100,000 (Asian/Pacific Islander);183;faible
Child mortality per 100,000 (Black);184;faible
Child mortality per 100,000 (Hispanic);185;faible
Child mortality per 100,000 (White);186;faible
Infant mortality per 1,000;187;faible
Total deaths for infants under one year of age;188;faible
Total number of live births (for infant mortality);189;faible
Infant mortality per 1,000 (American Indian/Alaska Native);190;faible
Infant mortality per 1,000 (Asian/Pacific Islander);191;faible
Infant mortality per 1,000 (Black);192;faible
Infant mortality per 1,000 (Hispanic);193;faible
Infant mortality per 1,000 (White);194;faible
% of adults reporting 14 or more days of poor physical health per month;195;
Number of adults who reported 14 or more days of poor physical health per month;196;
Total number of adult respondents in a county;197;faible
% of adults reporting 14 or more days of poor mental health per month;198;faible
Number of adults who reported 14 or more days of poor mental health per month;199;faible
Total number of adult respondents in a county;200;
% Diabetes prevalence;201;m
Number of adults reporting diagnosed diabetes;adult_diabetes;M
Total number of people reporting for diabetes;all_diabetes;M
HIV prevalence per 100,000;204;Faible
Number of HIV cases;205;Faible
Total population reporting for HIV;206;Faible
% of population who lack adequate access to food;p_lack_access_food;Forte
Population with a lack of access, at times, to enough food for an active, healthy life or with uncertain availability of nutritionally adequate food;lack_access_food;M
Total county population from National Center for Health Statistics;209;
% of population who are low-income and do not live close to a grocery store;210;Faible
Population who are low-income and do not live close to a grocery store;211;Faible
Total Population from 2015 USDA Food Environment Atlas;212;M
Number of drug poisoning deaths per 100,000 population;213;Faible
Number of drug poisoning deaths;214;Faible
Aggregate annual population;215;M
Number of drug poisoning deaths per 100,000 (American Indian/Alaska Native);216;Faible
Number of drug poisoning deaths per 100,000(Asian/Pacific Islander);217;Faible
Number of drug poisoning deaths per 100,000 (Black);218;Faible
Number of drug poisoning deaths per 100,000 (Hispanic);219;Faible
Number of drug poisoning deaths per 100,000  (White);220;Faible
Motor vehicle crash deaths per 100,000;221;Faible
Number of motor vehicle crash deaths ;222;Faible
Total aggregate annual population reporting for motor vehicle crash deaths;223;Faible
Motor vehicle crash deaths per 100,000 (American Indian/Alaska Native);224;Faible
Motor vehicle crash deaths per 100,000 (Asian/Pacific Islander);225;Faible
Motor vehicle crash deaths per 100,000 (Black);226;Faible
Motor vehicle crash deaths per 100,000 (Hispanic);227;Faible
Motor vehicle crash deaths per 100,000 (White);228;Faible
% of adults who report fewer than 7 hours of sleep on average;229;Faible
Number of adults who responded to the following question by stating they sleep less than 7 hours per night;230;M
Total number of adult respondents in a county;231;M
% Uninsured people;232;M
Number of people currently uninsured in the county under the age of 65;233;M
Total number of people in county under age 65;234;M
% of children under age 19 without health insurance;235;M
Number of people under age 19 who currently have no health insurance coverage;236;M
Population under age 19;237;M
Ratio of population to primary care providers other than physicians.;238;Faible
Number of other primary care providers in a county;239;Faible
Total county population;pop;Forte
Other primary care providers per 100,000;241;Faible
% High school graduation;242;Faible
Number of cohort members who earned a high school diploma;243;Faible
Total number of first-time 9th graders four years prior to high school graduation;244;Faible
% of teens and young adults ages 16-19 who are neither working nor in school;245;Faible
Number of people, ages 16-19, who are neither working nor in school;246;Faible
Total county population, ages 16-19;247;M
Reading scores;248;Faible
Reading scores (American Indian/Alaska Native);249;Faible
Reading scores (Asian/Pacific Islander);250;Faible
Reading scores (Black);251;Faible
Reading scores (Hispanic);252;Faible
Reading scores (White);253;Faible
Math scores;254;Faible
Math scores (American Indian/Alaska Native);255;Faible
Math scores (Asian/Pacific Islander);256;Faible
Math scores (Black);257;Faible
Math scores (Hispanic);258;Faible
Math scores (White);259;Faible
School segregation index (ranges from 0 to 1);260;Faible
School segregation numerator;261;Faible
School segregation denominator;262;Faible
School funding adequacy gap ($);263;Faible
School funding adequacy numerator;264;Faible
School funding adequacy denominator;265;Faible
"Gender pay gap, presented as ""cents on the dollar""";266;Faible
Gender pay gap numerator;267;Faible
Gender pay gap denominator;268;Faible
Median household income;50th_income;Forte
Median household income (American Indian/Alaska Native);270;Faible
Median household income (Asian);271;Faible
Median household income (Black);272;Faible
Median household income (Hispanic);273;Faible
Median household income (White);274;Faible
Living wage raw value;275;Faible
Living wage numerator;276;Faible
Living wage denominator;277;M
% Children eligible for free or reduced price lunch;278;M
Number of children eligible for free or reduced price lunch numerator;279;Faible
Total number of children enrolled in public schools reporting for free lunch;280;Faible
Residential segregation - Black/White;281;M
Residential segregation - non-White/White;282;M
Childcare cost burden (percent of income needed for childcare for two children);283;Faible
Childcare cost;284;Faible
Childcare cost burden denominator (median household income);285;Faible
Childcare centers per 1,000 children under 5 years old;286;Faible
Childcare centers;287;Faible
Resident population under 5 years old;288;Faible
Homicides per 100,000;289;Faible
Number of deaths due to homicide;290;Faible
Aggregate county population reporting for homicides;291;Faible
Homicides per 100,000 (American Indian/Alaska Native);292;Faible
Homicides per 100,000 (Asian/Pacific Islander);293;Faible
Homicides per 100,000 (Black);294;Faible
Homicides per 100,000 (Hispanic);295;Faible
Homicides per 100,000 (White);296;Faible
Suicides per 100,000;297;Faible
Number of deaths in a county over a 5-year period due to suicide;298;Faible
Aggregate county population over the 5-year period;299;Faible
Crude suicide rate per 100,000;300;Faible
Suicides per 100,000 (American Indian/Alaska Native);301;Faible
Suicides per 100,000 (Asian/Pacific Islander);302;Faible
Suicides per 100,000 (Black);303;Faible
Suicides per 100,000 (Hispanic);304;Faible
Suicides per 100,000 (White);305;Faible
Firearm fatalities per 100,000;306;Faible
Number of deaths in a county due to firearms;307;Faible
Aggregate annual population;308;Faible
Firearm fatalities per 100,000 (American Indian/Alaska Native);309;Faible
Firearm fatalities per 100,000 (Asian/Pacific Islander);310;Faible
Firearm fatalities per 100,000 (Black);311;Faible
Firearm fatalities per 100,000 (Hispanic);312;Faible
Firearm fatalities per 100,000 (White);313;Faible
Rate of delinquency cases per 1,000 juveniles;314;Faible
Number of delinquency cases;315;Faible
Population ages 10 to the upper age of jurisdiction;316;Faible
Number of juvenile delinquency cases formally processed by a juvenile court per 1,000;317;M
Number of informally handled juvenile delinquency cases per 1,000;318;M
Average traffic volume per meter of major roadways in the county;319;Faible
% of occupied housing units that are owned;320;faible
Total number of owner-occupied housing units in a county;321;faible
Total number of occupied housing units in a county;322;faible
% of households that spend 50% or more of their household income on housing;323;faible
Total number of households in a county that spend 50.0 % or more of their household income on housing;324;faible
Total occupied housing units for which housing cost burden is computed in a county.;325;faible
% of households with broadband internet connection;326;M
Total number of households in a county;327;M
Number of households in a county with a broadband internet subscription such as cable, DSL, or fiber optic;328;M
Total Population from Census Population Estimates;329;
Count of county population from Census Population Estimates;330;
Total population from Census Population Estimates;331;
% below 18 years of age;332;Faible
Count of population below 18 years of age;333;m
% 65 and older;334;Faible
Count of population 65 and older numerator;335;m
% Non-Hispanic Black;336;FAIBLE
Count of Non-Hispanic Black population;337;Faible
% American Indian & Alaska Native;338;Faible
Count of American Indian & Alaska Native population;339;Faible
% Asian;340;M
Asian population;341;M
Total population from Census Population Estimates;342;
% Native Hawaiian/Other Pacific Islander;343;M
Native Hawaiian/Other Pacific Islander population;344;M
Total population from Census Population Estimates;345;
% Hispanic;346;faible
Count of Hispanic population;347;faible
% Non-Hispanic White;348;faible
Non-Hispanic White population;349;faible
Total population from Census Population Estimates;350;
% not proficient in English;351;faible
Count of population not proficient in English;352;faible
% Females;353;faible
Count of Female population;354;Faible
% Rural;p_rural;Forte
Count of Rural population;rural_pop;M
v159_other_data_1;357;
State Ranking of Health Outcomes;358;Faible
State Ranking of Health Factors;359;Faible
State Subranking of Length of Life;360;Faible
State Subranking of Quality of Life;361;Faible
State Subranking of Health Behaviors;362;Faible
State Subranking of Clinical Care;363;Faible
State Subranking of Social and Economic Environment;364;Faible
State Subranking of Physical Environment;365;Faible
Shape__Area;366;
Shape__Length;367;
